{
    "items": [
      {
        "id": 0,
        "src": "mappable",
        "mobileSrc": false,
        "image": {
          "src": "htmls.01_01.image",
          "width": 1920,
          "height": 1080
        },
        "backdrop": false
      },
      {
        "id": 1,
        "idGame": "GAME1_01_04",
        "src": "selezione-indizi",
        "playGameAudio": true,
        "listaIndizi": [
          {
            "id": 0,
            "backgroundImg": "01_04_A_VUOTO_it.jpg",
            "indizi": [
              {
                "id": 0,
                "isCorrect": true,
                "img":"estintore.png",
                "feedback": "<p>Gli estintori devono essere ben visibili e facilmente accessibili.</p><p>&Egrave; preferibile che siano posizionati lungo le vie di uscita ed in prossimit&agrave; delle stesse, senza ostacolarne l&rsquo;accesso</p>",
                "height": "20%",
                "left": "21%",
                "top": "36.5%"
              },
              {
                "id": 1,
                "isCorrect": false,
                "img":"termometro.png",
                "height": "5.5%",
                "left": "1%",
                "top": "25%"
              },
              {
                "id": 2,
                "isCorrect": false,
                "img":"scala.png",
                "height": "25%",
                "left": "74.5%",
                "top": "59%"
              },
              {
                "id": 3,
                "isCorrect": false,
                "img":"acqua.png",
                "height": "49%",
                "left": "92%",
                "top": "51%"
              },
              {
                "id": 4,
                "isCorrect": false,
                "img":"caffettiera.png",
                "height": "12%",
                "left": "94%",
                "top": "30%"
              },
              {
                "id": 5,
                "isCorrect": false,
                "img":"scatole.png",
                "height": "16%",
                "left": "75%",
                "top": "40%"
              },
              {
                "id": 6,
                "isCorrect": true,
                "img":"calorifero.png",
                "feedback": "Posizionare degli oggetti/documenti in carta vicino a fonti di calore potrebbe farli surriscaldare correndo il rischio di provocare un incendio",
                "height": "7.5%",
                "left": "68%",
                "top": "45%"
              },
              {
                "id": 7,
                "isCorrect": true,
                "img":"cartello.png",
                "feedback": "Le vie di fuga devono essere adeguatamente e correttamente segnalate ",
                "height": "2.5%",
                "left": "72%",
                "top": "41%"
              },
              {
                "id": 8,
                "isCorrect": true,
                "img":"porta.png",
                "feedback": "L’uscita deve essere sempre sgombra e libera da impedimenti che potrebbero rallentare o complicare la fuga in caso di emergenza",
                "height": "16%",
                "left": "62%",
                "top": "39%"
              },
              {
                "id": 9,
                "isCorrect": true,
                "img":"sedia.png",
                "feedback": "<p>Una buona sedia deve consentire una posizione corretta e rilassata.</p><p>Sono ideali le sedie girevoli (5 ruote), regolabili in altezza, dotate di buona stabilit&agrave;, con schienale regolabile</p>",
                "height": "41%",
                "left": "13%",
                "top": "49%"
              }
            ]
          },
          {
            "id": 1,
            "backgroundImg": "01_04_B_VUOTO_it.jpg",
            "-backgroundImg": "01_04_B_FHD_it.jpg",
            "indizi": [
              {
                "id": 0,
                "isCorrect": false,
                "img":"termometro.png",
                "height": "5.5%",
                "left": "1%",
                "top": "25%"
              },
              {
                "id": 1,
                "isCorrect": false,
                "img":"cavi.png",
                "height": "20%",
                "left": "7.4%",
                "top": "64.2%"
              },
              {
                "id": 2,
                "isCorrect": true,
                "img":"stampante.png",
                "feedback": "Fotocopiatrici e stampanti laser devono essere posizionate in luoghi adeguati, lontane dalle postazioni di lavoro per evitare possibili irritazioni delle vie respiratorie a causa delle emissioni di ozono o del toner",
                "height": "21%",
                "left": "33.5%",
                "top": "66%"
              },
              {
                "id": 3,
                "isCorrect": false,
                "img":"pc_doppio.png",
                "height": "11%",
                "left": "25%",
                "top": "54%"
              },
              {
                "id": 4,
                "isCorrect": true,
                "img":"matrioska.png",
                "feedback": "Un ferma-finestra ha delle caratteristiche apposite (peso e forma) per evitare che qualcuno, in caso caduta dell’oggetto dall’alto, possa farsi male",
                "height": "4%",
                "left": "31%",
                "top": "47%"
              },
              {
                "id": 5,
                "isCorrect": false,
                "img":"sedia_libri.png",
                "height": "9%",
                "left": "80.5%",
                "top": "44.5%"
              },
              {
                "id": 6,
                "isCorrect": true,
                "img":"cestino.png",
                "feedback": "Fare la raccolta differenziata è un atto di responsabilità che rende l’ufficio un posto migliore",
                "height": "9%",
                "left": "76.5%",
                "top": "44.5%"
              },
              {
                "id": 7,
                "isCorrect": false,
                "img":"bottiglia.png",
                "height": "14%",
                "left":"94.98%",
                "top":"27.30%"
              },
              {
                "id": 8,
                "isCorrect": true,
                "img":"pronto_soccorso.png",
                "feedback": "La cassetta primo soccorso deve essere adeguatamente custodita così da garantirne le perfette condizioni d’uso in caso di emergenza",
                "height": "27%",
                "left": "65.5%",
                "top": "53%"
              },
              {
                "id": 9,
                "isCorrect": true,
                "img":"postazione.png",
                "feedback": "Per evitare disturbi connessi ad un’errata illuminazione è opportuno che il monitor del pc sia orientato ortogonalmente rispetto alle finestre",
                "height": "13%",
                "left": "50.5%",
                "top": "43%"
              }
            ]
          },
          {
            "id": 2,
            "backgroundImg": "01_04_C_VUOTO_it.jpg",
            "-backgroundImg": "01_04_C_FHD_it.jpg",
            "indizi": [
              {
                "id": 0,
                "isCorrect": true,
                "img":"pronto_soccorso.png",
                "feedback": "La cassetta primo soccorso deve essere adeguatamente custodita così da garantirne le perfette condizioni d’uso in caso di emergenza",
                "height": "31%",
                "top":"56.73%",
                "left":"77.97%"
              },
              {
                "id": 1,
                "isCorrect": false,
                "img":"pc_doppio.png",
                "height": "11%",
                "top":"54.50%",
                "left":"24.98%"
              },
              {
                "id": 2,
                "isCorrect": true,
                "img":"matrioska.png",
                "feedback": "Un ferma-finestra ha delle caratteristiche apposite (peso e forma) per evitare che qualcuno, in caso caduta dell’oggetto dall’alto, possa farsi male",
                "height": "4%",
                "top":"46.77%",
                "left":"30.71%"
              },
              {
                "id": 3,
                "isCorrect": false,
                "img":"bottiglia.png",
                "height": "14%",
                "left":"94.98%",
                "top":"27.30%"
              },
              {
                "id": 4,
                "isCorrect": false,
                "img":"scatole.png",
                "height": "16%",
                "top":"39.47%",
                "left":"75.66%"
              },
              {
                "id": 5,
                "isCorrect": false,
                "img":"acqua.png",
                "height": "49%",
                "left": "92%",
                "top": "51%"
              },
              {
                "id": 6,
                "isCorrect": true,
                "img":"sedia.png",
                "feedback": "<p>Una buona sedia deve consentire una posizione corretta e rilassata.</p><p>Sono ideali le sedie girevoli (5 ruote), regolabili in altezza, dotate di buona stabilit&agrave;, con schienale regolabile</p>",
                "height": "41%",
                "top":"49.24%",
                "left":"12.37%"
              },
              {
                "id": 7,
                "isCorrect": true,
                "img":"estintore.png",
                "feedback": "<p>Gli estintori devono essere ben visibili e facilmente accessibili.</p><p>&Egrave; preferibile che siano posizionati lungo le vie di uscita ed in prossimit&agrave; delle stesse, senza ostacolarne l&rsquo;accesso</p>",
                "height": "20%",
                "left": "21%",
                "top": "36.5%"
              },
              {
                "id": 8,
                "isCorrect": true,
                "img":"cartello.png",
                "feedback": "Le vie di fuga devono essere adeguatamente e correttamente segnalate ",
                "height": "2.5%",
                "left": "74%",
                "top": "41%"
              },
              {
                "id": 9,
                "isCorrect": false,
                "img":"termometro.png",
                "height": "5.5%",
                "left": "1%",
                "top": "25%"
              }
            ]
          },
          {
            "id": 3,
            "backgroundImg": "01_04_D_VUOTO_it.jpg",
            "-backgroundImg": "01_04_D_FHD_it.jpg",
            "indizi": [
              {
                "id": 0,
                "isCorrect": true,
                "img":"stampante.png",
                "feedback": "Fotocopiatrici e stampanti laser devono essere posizionate in luoghi adeguati, lontane dalle postazioni di lavoro per evitare possibili irritazioni delle vie respiratorie a causa delle emissioni di ozono o del toner",
                "height": "21%",
                "left": "33.5%",
                "top": "66%"
              },
              {
                "id": 1,
                "isCorrect": true,
                "img":"porta.png",
                "feedback": "L’uscita deve essere sempre sgombra e libera da impedimenti che potrebbero rallentare o complicare la fuga in caso di emergenza",
                "height": "16%",
                "top":"39.45%",
                "left":"62.81%"
              },
              {
                "id": 2,
                "isCorrect": false,
                "img":"scala.png",
                "height": "25%",
                "left": "74.5%",
                "top": "59%"
              },
              {
                "id": 3,
                "isCorrect": true,
                "img":"cestino.png",
                "feedback": "Fare la raccolta differenziata è un atto di responsabilità che rende l’ufficio un posto migliore",
                "height": "9%",
                "top":"44.08%",
                "left":"73.1%"
              },
              {
                "id": 4,
                "isCorrect": false,
                "img":"pc_doppio.png",
                "height": "11%",
                "left": "25%",
                "top": "54%"
              },
              {
                "id": 5,
                "isCorrect": false,
                "img":"caffettiera.png",
                "height": "12%",
                "left": "94%",
                "top": "30%"
              },
              {
                "id": 6,
                "isCorrect": false,
                "img":"scatole.png",
                "height": "16%",
                "top":"39.22%",
                "left":"76.20%"
              },
              {
                "id": 7,
                "isCorrect": true,
                "img":"postazione.png",
                "feedback": "Per evitare disturbi connessi ad un’errata illuminazione è opportuno che il monitor del pc sia orientato ortogonalmente rispetto alle finestre",
                "height": "12%",
                "top":"44.20%",
                "left":"50.74%"
              },
              {
                "id": 8,
                "isCorrect": false,
                "img":"cavi.png",
                "height": "20%",
                "left": "7.4%",
                "top": "64.2%"
              },
              {
                "id": 9,
                "isCorrect": true,
                "img":"estintore.png",
                "feedback": "<p>Gli estintori devono essere ben visibili e facilmente accessibili.</p><p>&Egrave; preferibile che siano posizionati lungo le vie di uscita ed in prossimit&agrave; delle stesse, senza ostacolarne l&rsquo;accesso</p>",
                "height": "20%",
                "left": "21%",
                "top": "36.5%"
              }
            ]
          },
          {
            "id": 4,
            "-backgroundImg": "01_04_E_FHD_it.jpg",
            "backgroundImg": "01_04_E_VUOTO_it.jpg",
            "indizi": [{
              "id": 0,
              "isCorrect": false,
              "img":"sedia_libri.png",
              "height": "9%",
              "top":"43.30%",
              "left":"80.51%"
            },
              {
                "id": 1,
                "isCorrect": true,
                "img":"cestino.png",
                "feedback": "Fare la raccolta differenziata è un atto di responsabilità che rende l’ufficio un posto migliore",
                "height": "9%",
                "top":"44.52%",
                "left":"76.63%"
              },
              {
                "id": 2,
                "isCorrect": false,
                "img":"caffettiera.png",
                "height": "12%",
                "left": "94%",
                "top": "30%"
              },
              {
                "id": 3,
                "isCorrect": true,
                "img":"porta.png",
                "feedback": "L’uscita deve essere sempre sgombra e libera da impedimenti che potrebbero rallentare o complicare la fuga in caso di emergenza",
                "height": "16%",
                "top":"39.45%",
                "left":"62.81%"
              },
              {
                "id": 4,
                "isCorrect": false,
                "img":"pc_doppio.png",
                "height": "11%",
                "top":"54.63%",
                "left":"25.21%"
              },
              {
                "id": 5,
                "isCorrect": false,
                "img":"acqua.png",
                "height": "49%",
                "left": "92%",
                "top": "51%"
              },
              {
                "id": 6,
                "isCorrect": true,
                "img":"pronto_soccorso.png",
                "feedback": "La cassetta primo soccorso deve essere adeguatamente custodita così da garantirne le perfette condizioni d’uso in caso di emergenza",
                "height": "45%",
                "top":"61.90%",
                "left":"3.77%"
              },
              {
                "id": 7,
                "isCorrect": true,
                "img":"sedia.png",
                "feedback": "<p>Una buona sedia deve consentire una posizione corretta e rilassata.</p><p>Sono ideali le sedie girevoli (5 ruote), regolabili in altezza, dotate di buona stabilit&agrave;, con schienale regolabile</p>",
                "height": "41%",
                "top":"50.81%",
                "left":"13.24%"
              },
              {
                "id": 8,
                "isCorrect": false,
                "img":"termometro.png",
                "height": "5.5%",
                "left": "1%",
                "top": "25%"
              },
              {
                "id": 9,
                "isCorrect": true,
                "img":"calorifero.png",
                "feedback": "Posizionare degli oggetti/documenti in carta vicino a fonti di calore potrebbe farli surriscaldare correndo il rischio di provocare un incendio",
                "height": "7.5%",
                "left": "70%",
                "top": "45%"
              }
            ]
          }
        ],
        "backdrop": true
      },
      {
        "id": 2,
        "idGame": "GAME2_01_07",
        "src": "domande-indizi",
        "playGameAudio": true,
        "listaIndizi": [
          {
            "id": 0,
            "backgroundImg": "01_07_massimo_vuota.jpg",
            "feedbackImg": "01_07_rapporto2massimo.jpg",
            "indizi": [
              {
                "id": 0,
                "isCorrect": false,
                "img":"cavi.png",
                "height": "46%",
                "top":"71%",
                "left":"56.54%",
                "leftCheck": "61.54%"
              },
              {
                "id": 1,
                "isCorrect": true,
                "img":"forbici.png",
                "height": "11%",
                "top":"41.93%",
                "left":"45.26%",
                "topCheck": "43%"
              },
              {
                "id": 2,
                "isCorrect": true,
                "img":"sgrassatore.png",
                "height": "19%",
                "top":"31.79%",
                "left":"52.27%",
                "leftCheck": "51.27%",
                "topCheck": "21.79%"
              },
              {
                "id": 3,
                "isCorrect": true,
                "img":"candela.png",
                "height": "15%",
                "top":"34.13%",
                "left":"81.49%",
                "leftCheck": "81.49%",
                "topCheck": "26.13%"
              },
              {
                "id": 4,
                "isCorrect": true,
                "img":"cassetto_aperto.png",
                "height": "44%",
                "top":"76.83%",
                "left":"69.48%",
                "leftCheck": "74.48%",
                "topCheck": "51.83%"
              }
            ]
          },
          {
            "id": 1,
            "backgroundImg": "01_07_giulio_vuota.jpg",
            "feedbackImg": "01_07_rapporto2giulio.jpg",
            "indizi": [
              {
                "id": 0,
                "isCorrect": true,
                "img":"zaino.png",
                "height": "30%",
                "top":"84.31%",
                "left":"0.32%"
              },
              {
                "id": 1,
                "isCorrect": false,
                "img":"pc_acceso.png",
                "height": "32%",
                "top":"28.89%",
                "left":"20.65%",
                "leftCheck": "18.65%",
                "topCheck": "25.89%"
              },
              {
                "id": 2,
                "isCorrect": true,
                "img":"ombrello.png",
                "height": "9%",
                "left": "0.67%",
                "top": "39.52%"
              },
              {
                "id": 3,
                "isCorrect": false,
                "img": "lampada_accesa.png",
                "height": "26%",
                "left": "43%",
                "top": "30%",
                "leftCheck": "44.5%",
                "topCheck": "17%"
              },
              {
                "id": 4,
                "isCorrect": false,
                "img": "bottiglia.png",
                "height": "14%",
                "left": "40.5%",
                "top": "34.52%",
                "leftCheck": "43.5%",
                "topCheck": "38.52%"
              }
            ]
          },
          {
            "id": 2,
            "backgroundImg": "01_07_sara_vuota.jpg",
            "feedbackImg": "01_07_rapporto2sara.jpg",
            "indizi": [
              {
                "id": 0,
                "isCorrect": true,
                "img":"poggiapiedi.png",
                "height": "18%",
                "top":"91.98%",
                "left":"51.77%",
                "leftCheck": "50%",
                "topCheck": "92%"
              },
              {
                "id": 1,
                "isCorrect": true,
                "img":"lampada_spenta.png",
                "height": "26%",
                "left": "43%",
                "top": "30%",
                "leftCheck": "43%",
                "topCheck": "16%"
              },

              {
                "id": 2,
                "isCorrect": false,
                "img":"telefono.png",
                "height": "3.5%",
                "top":"42.11%",
                "left":"41.98%",
                "leftCheck": "45%"
              },
              {
                "id": 3,
                "isCorrect": false,
                "img":"sedia.png",
                "height": "86.5%",
                "top":"58.94%",
                "left":"0%",
                "topCheck": "64%"
              },
              {
                "id": 4,
                "isCorrect": false,
                "img":"mouse.png",
                "height": "4.5%",
                "top":"42%",
                "left":"36.11%",
                "leftCheck": "38.11%",
                "topCheck": "37%"
              }
            ]
          }
        ],
        "backdrop": true
      },
      {
        "id": 3,
        "idGame": "01_08",
        "src": "selezione-password",
        "backdrop": true
      },
      {
        "id": 4,
        "idGame": "GAME3_01_11",
        "src": "frasi-indiziati",
        "playGameAudio": true,
        "listaFrasi": [
          {
            "id": 0,
            "backgroundImg": "01_11_sfondo.jpg",
            "title": "PRIMA TESTIMONIANZA",
            "indiziati": [
              {
                "id": 0,
                "isCorrect": true,
                "testimonianza": "<p><strong>Massimo</strong> mi ha consigliato di prendere l&rsquo;ascensore per lasciare l&rsquo;edificio pi&ugrave; in fretta</p>",
                "height": "29%",
                "width": "31%",
                "left": "2.8%",
                "top": "50%"
              },
              {
                "id": 1,
                "isCorrect": false,
                "testimonianza": "<p>Secondo <strong>Sara</strong>, se le fiamme coinvolgono delle persone, per spegnerle non bisogna usare estintori a CO2 che potrebbero recare ustioni</p>",
                "height": "29%",
                "width": "31%",
                "left": "34.5%",
                "top": "50%"
              },
              {
                "id": 2,
                "isCorrect": false,
                "testimonianza": "<p><strong>Giulio</strong> mi ha detto che se le fiamme coinvolgono delle persone bisogna usare delle coperte o degli indumenti per spegnerle</p>",
                "height": "29%",
                "width": "31%",
                "left": "66.5%",
                "top": "50%"
              }
            ]
          },
          {
            "id": 1,
            "backgroundImg": "01_11_sfondo.jpg",
            "title": "SECONDA TESTIMONIANZA",
            "indiziati": [
              {
                "id": 0,
                "isCorrect": false,
                "testimonianza": "<p><strong>Giulio</strong> mi ha consigliato, nel caso in cui non fosse possibile lasciare l&rsquo;ufficio, di sdraiarmi sul pavimento dove l'aria &egrave; pi&ugrave; respirabile</p>",
                "height": "29%",
                "width": "31%",
                "left": "3%",
                "top": "50%"
              },
              {
                "id": 1,
                "isCorrect": false,
                "testimonianza": "<p><strong>Sara </strong>diceva di proteggere naso e bocca con fazzoletti o altri indumenti possibilmente bagnati</p>",
                "height": "29%",
                "width": "31%",
                "left": "34.5%",
                "top": "50%"
              },
              {
                "id": 2,
                "isCorrect": true,
                "testimonianza": "<p>Quando ci siamo incontrati fuori dall&rsquo;edificio, mentre stavo andando al punto di raccolta, <strong>Massimo</strong> mi ha chiesto di cercare Chiara, una collega che si era persa.</p><p>Avrebbe avvisato lui il Responsabile!</p>",
                "height": "29%",
                "width": "31%",
                "left": "66.5%",
                "top": "50%"
              }
            ]
          },
          {
            "id": 2,
            "backgroundImg": "01_11_sfondo.jpg",
            "title": "TERZA TESTIMONIANZA",
            "indiziati": [
              {
                "id": 0,
                "isCorrect": false,
                "testimonianza": "<p><strong>Sara, </strong>visto che l&rsquo;incendio si &egrave; sviluppato ai piani inferiori, ha consigliato a me e ad altri colleghi di recarsi ai piani superiori in attesa dei soccorsi</p>",
                "height": "29%",
                "width": "31%",
                "left": "3%",
                "top": "50%"
              },
              {
                "id": 1,
                "isCorrect": true,
                "testimonianza": "<p><strong>Massimo</strong> ha consigliato, nel caso in cui non fosse possibile lasciare l&rsquo;ufficio, di aprire le porte e finestre per favorire il ricambio d&rsquo;aria</p>",
                "height": "29%",
                "width": "31%",
                "left": "34.5%",
                "top": "50%"
              },
              {
                "id": 2,
                "isCorrect": false,
                "testimonianza": "<p><strong>Giulio</strong> ha consigliato, prima di uscire, di controllare con il dorso della mano se la maniglia della porta d&rsquo;ingresso &egrave; calda</p>",
                "height": "29%",
                "width": "31%",
                "left": "66.5%",
                "top": "50%"
              }
            ]
          }
        ],
        "backdrop": true
      },
      {
        "id": 5,
        "src": "profilo",
        "backdrop": false
      },
      {
        "id": 31,
        "src": "set-course-completed",
        "backdrop": false
      }
    ]
}